  \begin{tikzpicture}[font=\ttfamily]
    \filldraw (-0.5,-0.5) circle (0.05cm);
    \draw[->,>=latex] (-0.5,-0.5) -- ++(0,-2) -> ++(0.5,0);
    \filldraw (-0.5,-2.5) circle (0.05cm);
    \draw(-0.5,-2.5) -- ++(0,-1);
    \draw[->,>=latex] (-0.5,-5) -- ++(0,-.5) -> ++(0.5,0);
    
    \draw[->,>=latex] (-1,-0.5) node [left] {A} -> ++(1,0);
    \draw[->,>=latex] (-1,-1) node [left] {B[3:0]} -> ++(1,0);
    \draw[->,>=latex] (-1,-3) node [left] {B[7:4]} -> ++(1,0);
    \draw[->,>=latex] (-1,-6) ++(0.4,0) node [above left] {B[4*N+3:4*N]} ++(-0.4,0) -> ++(1,0);
    
    \draw (0,0) 
    rectangle ++(1.5,-1.5) 
    ++(-0.75,1.05) node {\footnotesize LUT} ++(0,-.1)
    node (lh1) [below] {\footnotesize 4Bits} ++(0,-.1)
    (lh1) node [below] {\footnotesize helper};
    
    \draw (0,-2) 
    rectangle ++(1.5,-1.5) 
    ++(-0.75,1.05) node {\footnotesize LUT} ++(0,-.1)
    node (lh2) [below] {\footnotesize 4Bits} ++(0,-.1)
    (lh2) node [below] {\footnotesize helper};
    
    \draw (0,-5) 
    rectangle ++(1.5,-1.5) 
    ++(-0.75,1.05) node {\footnotesize LUT} ++(0,-.1)
    node (lh3) [below] {\footnotesize 4Bits} ++(0,-.1)
    (lh3) node [below] {\footnotesize helper};
    
    \filldraw (-0.5,-4) circle (0.05cm) ++(0,-.25) circle (0.05cm) ++(0,-.25) circle (0.05cm);
    \filldraw (0.75,-4) circle (0.05cm) ++(0,-.25) circle (0.05cm) ++(0,-.25) circle (0.05cm);
    \filldraw (2.75,-4) circle (0.05cm) ++(0,-.25) circle (0.05cm) ++(0,-.25) circle (0.05cm);
    \filldraw (4,-4) circle (0.05cm) ++(0,-.25) circle (0.05cm) ++(0,-.25) circle (0.05cm);
    
    \draw (2,-2) rectangle ++(1.5,-1.5) ++(-0.75,0.75) node {\footnotesize $<<$ 4};
    \draw (2,-5) rectangle ++(1.5,-1.5) ++(-0.75,0.75) node {\footnotesize $<<$ 4*N};
    
    \draw[->,>=latex] (1.5, -0.75) -- ++(2.5,0) -- ++(0, -1.75) -- ++(0.5,0);
    \draw[->,>=latex] (1.5, -2.75) -- ++(.5,0);
    \draw[->,>=latex] (3.5, -2.75) -- ++(1,0);
    \draw[->,>=latex] (1.5, -5.75) -- ++(.5,0);
    \draw[->,>=latex] (3.5,-5.75) -- ++(.5,0) -- ++(0,.75) ++(0, 1.5) -- ++(0,.5) -- ++(0.5, 0);
                      
    \draw (4.5,-2) rectangle ++(1.5,-1.5) ++(-0.75,0.75) node {\Large +};
    \draw[->,>=latex] (6, -2.75) -- ++(1,0) node [right] {A*B};
    
    \draw (-3.5,.5) node (imul2) {} node [above right] {\Large LUT\_4Bits} rectangle ++(10,-7.5);
    \draw[->,>=latex] (imul2) ++(-1,-2) node [above right] {A} -- ++(1,0);
    \draw[->,>=latex] (imul2) ++(-1,-5.5) node [above right] {B} -- ++(1,0);
    
  \end{tikzpicture}