  \begin{tikzpicture}[font=\ttfamily]
  \draw (0,0) node (inicio) {};
  \draw [thick](inicio.center) rectangle ++(1,1) ++(-0.5,-0.5) node {0};
  \draw [thick](inicio.center) ++(1,0) rectangle ++(2,1) ++(-1,-0.5) node {X};
  \draw [thick](inicio.center) ++(0,1) rectangle ++(1,1) ++(-0.5,-0.5) node {1};
  \draw [thick](inicio.center) ++(1,1) rectangle ++(2,1) ++(-1,-0.5) node {X};
  \draw [thick](inicio.center) ++(0,2) rectangle ++(1,1) ++(-0.5,-0.5) node {2};
  \draw [thick](inicio.center) ++(1,2) rectangle ++(2,1) ++(-1,-0.5) node {X};
  \draw (inicio.center) ++(0,3) ++(0.5,0.5) node {$\vdots$};
  \draw (inicio.center) ++(1.5,3) ++(0.5,0.5) node {$\vdots$};
  \draw [->,>=latex](inicio.center) ++(-1,0.5) -- ++(1,0);
  \draw (inicio.center) ++(-1,0.5) -- ++(1,0) node [above left] {\texttt{stackPointer}};
  
  \draw [->,>=latex](inicio.center) ++(4.5,4.5) -- ++(1.5,0);
  \draw (inicio.center) ++(5.25,4.5) node [above] {PUSH RA};
  
  \draw (inicio) ++(7, 0) node (inicio2) {};
  \draw [thick](inicio2.center) rectangle ++(1,1) ++(-0.5,-0.5) node {0};
  \draw [thick](inicio2.center) ++(1,0) rectangle ++(2,1) ++(-1,-0.5) node {dato RA};
  \draw [thick](inicio2.center) ++(0,1) rectangle ++(1,1) ++(-0.5,-0.5) node {1};
  \draw [thick](inicio2.center) ++(1,1) rectangle ++(2,1) ++(-1,-0.5) node {X};
  \draw [thick](inicio2.center) ++(0,2) rectangle ++(1,1) ++(-0.5,-0.5) node {2};
  \draw [thick](inicio2.center) ++(1,2) rectangle ++(2,1) ++(-1,-0.5) node {X};
  \draw (inicio2.center) ++(0,3) ++(0.5,0.5) node {$\vdots$};
  \draw (inicio2.center) ++(1.5,3) ++(0.5,0.5) node {$\vdots$};
  \draw [->,>=latex](inicio2.center) ++(-1,1.5) -- ++(1,0);
  \draw (inicio2.center) ++(-1,1.5) ++(1,0) node [above left] {\texttt{stackPointer}};
  
  % \draw [->,>=latex](inicio2.center) ++(3.5,4.5) -- ++(1.5,0);
  % \draw (inicio2.center) ++(4.25,4.5) node [above] {PUSH R3};
  
  \draw (inicio) ++(0, -6) node (inicio3) {};
  \draw [thick](inicio3.center) rectangle ++(1,1) ++(-0.5,-0.5) node {0};
  \draw [thick](inicio3.center) ++(1,0) rectangle ++(2,1) ++(-1,-0.5) node {dato RA};
  \draw [thick](inicio3.center) ++(0,1) rectangle ++(1,1) ++(-0.5,-0.5) node {1};
  \draw [thick](inicio3.center) ++(1,1) rectangle ++(2,1) ++(-1,-0.5) node {dato R3};
  \draw [thick](inicio3.center) ++(0,2) rectangle ++(1,1) ++(-0.5,-0.5) node {2};
  \draw [thick](inicio3.center) ++(1,2) rectangle ++(2,1) ++(-1,-0.5) node {X};
  \draw (inicio3.center) ++(0,3) ++(0.5,0.5) node {$\vdots$};
  \draw (inicio3.center) ++(1.5,3) ++(0.5,0.5) node {$\vdots$};
  \draw [->,>=latex](inicio3.center) ++(-1,2.5) -- ++(1,0);
  \draw (inicio3.center) ++(-1,2.5) ++(1,0) node [above left] {\texttt{stackPointer}};
  
  \draw [->,>=latex](inicio3.center) ++(4.5,4.5) -- ++(1.5,0);
  \draw (inicio3.center) ++(5.25,4.5) node [above] {POP R3};
  
  \draw (inicio) ++(7, -6) node (inicio4) {};
  \draw [thick](inicio4.center) rectangle ++(1,1) ++(-0.5,-0.5) node {0};
  \draw [thick](inicio4.center) ++(1,0) rectangle ++(2,1) ++(-1,-0.5) node {dato RA};
  \draw [thick](inicio4.center) ++(0,1) rectangle ++(1,1) ++(-0.5,-0.5) node {1};
  \draw [thick](inicio4.center) ++(1,1) rectangle ++(2,1) ++(-1,-0.5) node {dato R3};
  \draw [thick](inicio4.center) ++(0,2) rectangle ++(1,1) ++(-0.5,-0.5) node {2};
  \draw [thick](inicio4.center) ++(1,2) rectangle ++(2,1) ++(-1,-0.5) node {X};
  \draw (inicio4.center) ++(0,3) ++(0.5,0.5) node {$\vdots$};
  \draw (inicio4.center) ++(1.5,3) ++(0.5,0.5) node {$\vdots$};
  \draw [->,>=latex](inicio4.center) ++(-1,1.5) -- ++(1,0);
  \draw (inicio4.center) ++(-1,1.5) ++(1,0) node [above left] {\texttt{stackPointer}};
  
  \draw (inicio) ++(-2.5,-0.75) -- ++(14,0);
  \draw (inicio) ++(3.75,4.75) -- ++(0,-11);
  
  \draw (inicio) ++(-2, -1.5) node (inicio5) {};
  \draw [->,>=latex](inicio5.center) -- ++(1.5,0) node (fin5) {};
  \draw (fin5.center) ++(-1,0) node [above] {PUSH R3};
  
  \draw (inicio) ++(3, 4.5) node (tag1) {1};
  \draw (inicio2) ++(3, 4.5) node (tag2) {2};
  \draw (inicio3) ++(3, 4.5) node (tag3) {3};
  \draw (inicio4) ++(3, 4.5) node (tag4) {4};
  \end{tikzpicture}
